Endpoint is :https://reqres.in/api/users

Request Body is :{
    "name": "Dhanshree",
    "job": "QA"
}

Response Body is :{"name":"Dhanshree","job":"QA","id":"197","createdAt":"2023-12-28T12:09:45.662Z"}